Final Report
…
bans2018

## # A tibble: 51 × 4
##    state                state_abv  year abstatus
##    <chr>                <chr>     <dbl> <chr>   
##  1 Alabama              AL         2018 1       
##  2 Alaska               AK         2018 0       
##  3 Arizona              AZ         2018 1       
##  4 Arkansas             AR         2018 1       
##  5 California           CA         2018 1       
##  6 Colorado             CO         2018 0       
##  7 Connecticut          CT         2018 1       
##  8 Delaware             DE         2018 1       
##  9 District of Columbia DC         2018 0       
## 10 Florida              FL         2018 1       
## # … with 41 more rows
…
bans2022

## # A tibble: 51 × 4
##    state                abstatus state_abv  year
##    <chr>                <chr>    <chr>     <dbl>
##  1 Alabama              1        AL         2022
##  2 Alaska               0        AK         2022
##  3 Arizona              1        AZ         2022
##  4 Arkansas             1        AR         2022
##  5 California           1        CA         2022
##  6 Colorado             0        CO         2022
##  7 Connecticut          1        CT         2022
##  8 Delaware             1        DE         2022
##  9 District of Columbia 0        DC         2022
## 10 Florida              1        FL         2022
## # … with 41 more rows
…
abortion_bans <-
  full_join(bans2018, bans2022)%>% 
  arrange(state, year) %>% 
  pivot_wider(
    names_from = year,
    values_from = abstatus) %>% 
  rename(abstatus18 = '2018', abstatus22 = '2022') %>% 
  write_csv("data_cleaned/abortion_bans_final.csv")

## Joining, by = c("state", "state_abv", "year", "abstatus")

abortion_bans

## # A tibble: 51 × 4
##    state                state_abv abstatus18 abstatus22
##    <chr>                <chr>     <chr>      <chr>     
##  1 Alabama              AL        1          1         
##  2 Alaska               AK        0          0         
##  3 Arizona              AZ        1          1         
##  4 Arkansas             AR        1          1         
##  5 California           CA        1          1         
##  6 Colorado             CO        0          0         
##  7 Connecticut          CT        1          1         
##  8 Delaware             DE        1          1         
##  9 District of Columbia DC        0          0         
## 10 Florida              FL        1          1         
## # … with 41 more rows
…
